// Jest Snapshot v1, https://goo.gl/fbAQLP

exports[`renders SignUp 1`] = `
<div
  className="form-inline"
  style={
    Object {
      "margin": "5%",
    }
  }
>
  <h2>
    Sign Up
  </h2>
  <div
    className="form-group"
  >
    <input
      className="form-control"
      onChange={[Function]}
      placeholder="email"
      style={
        Object {
          "marginRight": "5px",
        }
      }
      type="text"
    />
    <input
      className="form-control"
      onChange={[Function]}
      placeholder="password"
      style={
        Object {
          "marginRight": "5px",
        }
      }
      type="password"
    />
    <button
      className="btn btn-primary"
      onClick={[Function]}
      type="button"
    >
      Sign Up
    </button>
  </div>
  <div>
    
  </div>
  <div>
    <a
      href="/signin"
    >
      Already a user? Sign in instead
    </a>
  </div>
</div>
`;
