// Jest Snapshot v1, https://goo.gl/fbAQLP

exports[`renders Footer  1`] = `
<footer
  className="app-footer"
>
  <span>
    <a
      href="http://novil.com.ar"
    >
      Novil
    </a>
     © 2017 Novil.
  </span>
</footer>
`;
